100
timestamp cpu_broker cpu_openfire cpu_zmq mem_broker mem_openfire mem_zmq net_byt_rx net_byt_tx
1513010823405 174 10482 2069 240704 489024 88088 31704975181 15724903839
1513010824419 174 10483 2069 240704 489024 88088 31704977319 15724910535
1513010825453 174 10483 2069 240704 489024 88088 31704980105 15724921821
1513010826492 175 10483 2069 240704 489024 88088 31704981991 15724928423
1513010827530 175 10483 2069 240704 489024 88088 31704985029 15724940199
1513010828570 175 10483 2069 240704 489024 88088 31704988037 15724952045
1513010829609 176 10483 2069 240704 489024 88088 31704991011 15724964527
1513010830648 176 10483 2069 240704 489024 88088 31704994184 15724976249
1513010831688 176 10483 2069 240704 489024 88088 31704999185 15724988905
1513010832728 177 10483 2069 240704 489024 88088 31705002193 15725000627
1513010833769 178 10484 2069 240704 489024 88088 31705005729 15725012349
1513010834809 178 10484 2069 240704 489024 88088 31705008737 15725024341
1513010835850 179 10484 2070 240704 489024 88088 31705012203 15725037259
1513010836892 179 10484 2070 240704 489024 88088 31705015019 15725048853
1513010837933 179 10484 2070 240704 489024 88088 31705018264 15725061001
1513010838974 179 10484 2070 240704 489024 88088 31705021074 15725072415
1513010840016 179 10484 2070 240704 489024 88088 31705024082 15725084991
1513010841055 179 10484 2070 240704 489024 88088 31705025968 15725091593
1513010842094 180 10485 2070 240704 489024 88088 31705028498 15725103433
1513010843133 180 10485 2070 240704 489024 88088 31705030542 15725110035
1513010844172 180 10485 2070 240704 489024 88088 31705035034 15725131803
1513010845213 180 10485 2071 240704 489024 88088 31705037428 15725138841
1513010846255 181 10485 2071 240704 489024 88088 31705040397 15725150617
1513010847295 181 10485 2071 240704 489024 88088 31705042505 15725157313
1513010848337 181 10485 2071 240704 489024 88088 31705045325 15725168541
1513010849376 181 10486 2071 240704 489024 88088 31705047867 15725175377
1513010850416 182 10486 2071 240704 489024 88088 31705051299 15725188179
1513010851448 182 10486 2071 240704 489024 88088 31705053313 15725195459
1513010852466 183 10486 2071 240704 489024 88088 31705056807 15725207211
1513010853504 183 10487 2071 240704 489024 88088 31705059393 15725214675
1513010854543 183 10487 2071 240704 489024 88088 31705062593 15725226333
1513010855574 183 10487 2071 240704 489024 88088 31705064479 15725233425
1513010856615 184 10487 2071 240704 489024 88088 31705066969 15725240653
1513010857655 184 10487 2071 240704 489024 88088 31705069265 15725248117
1513010858696 184 10487 2072 240704 489024 88088 31705071753 15725255283
1513010859735 184 10487 2072 240704 489024 88088 31705075261 15725267525
1513010860775 185 10487 2072 240704 489024 88088 31705077463 15725275021
1513010861817 185 10488 2072 240704 489024 88088 31705079379 15725282113
1513010862857 185 10488 2073 240704 489024 88088 31705081359 15725289117
1513010863898 185 10488 2073 240704 489024 88088 31705083373 15725296209
1513010864938 185 10488 2073 240704 489024 88088 31705087677 15725303353
1513010865978 185 10488 2073 240704 489024 88088 31705090561 15725311016
1513010867019 186 10488 2073 240704 489024 88088 31705092703 15725318076
1513010868057 186 10488 2073 240704 489024 88088 31705094963 15725325262
1513010869100 186 10488 2073 240704 489024 88088 31705096721 15725331864
1513010870139 187 10488 2073 240704 489024 88088 31705099169 15725339264
1513010871180 187 10489 2073 240704 489024 88088 31705100991 15725345866
1513010872221 187 10489 2073 240704 489024 88088 31705103059 15725353052
1513010873263 187 10489 2073 240704 489024 88088 31705105325 15725360026
1513010874303 187 10489 2073 240704 489024 88088 31705107369 15725367118
1513010875343 188 10489 2073 240704 489024 88088 31705110431 15725378892
1513010876385 188 10490 2073 240704 489024 88088 31705112509 15725385682
1513010877426 188 10490 2073 240704 489024 88088 31705114489 15725392348
1513010878468 189 10490 2073 240704 489024 88088 31705117053 15725404188
1513010879493 189 10490 2073 240704 489024 88088 31705118905 15725411374
1513010880519 189 10490 2073 240704 489024 88088 31705121341 15725422660
1513010881557 189 10490 2074 240704 489024 88088 31705124527 15725434606
1513010882595 189 10490 2074 240704 489024 88088 31705127641 15725445956
1513010883635 190 10490 2074 240704 489024 88088 31705130713 15725458292
1513010884674 190 10490 2074 240704 489024 88088 31705133460 15725469672
1513010885713 190 10490 2075 240704 489024 88088 31705135960 15725481448
1513010886754 190 10490 2075 240704 489024 88088 31705138588 15725492862
1513010887794 190 10490 2075 240704 489024 88088 31705141152 15725504638
1513010888833 190 10491 2075 240704 489024 88088 31705143716 15725516018
1513010889874 190 10491 2075 240704 489024 88088 31705146310 15725527304
1513010890913 191 10491 2075 240704 489024 88088 31705148904 15725538590
1513010891954 191 10492 2075 240704 489024 88088 31705151468 15725550064
1513010892993 191 10492 2075 240704 489024 88088 31705155684 15725562800
1513010894035 192 10492 2076 240704 489024 88088 31705157980 15725570264
1513010895075 192 10492 2076 240704 489024 88088 31705160276 15725577332
1513010896117 192 10492 2076 240704 489024 88088 31705162725 15725584796
1513010897159 192 10492 2076 240704 489024 88088 31705165115 15725591834
1513010898201 192 10492 2076 240704 489024 88088 31705167815 15725599468
1513010899242 193 10492 2076 240704 489024 88088 31705170200 15725606630
1513010900284 193 10493 2076 240704 489024 88088 31705171830 15725613816
1513010901324 193 10493 2076 240704 489024 88088 31705173652 15725620418
1513010902366 193 10493 2076 240704 489024 88088 31705175410 15725627510
1513010903406 193 10494 2076 240704 489024 88088 31705177744 15725634112
1513010904439 193 10494 2076 240704 489024 88088 31705180014 15725641426
1513010905480 193 10494 2076 240704 489024 88088 31705182058 15725648028
1513010906520 194 10494 2076 240704 489024 88088 31705184622 15725660294
1513010907541 194 10494 2076 240704 489024 88088 31705187344 15725672070
1513010908566 194 10494 2076 240704 489024 88088 31705190416 15725683916
1513010909604 194 10494 2076 240704 489024 88088 31705193326 15725696128
1513010910643 194 10494 2076 240704 489024 88088 31705196206 15725707786
1513010911683 195 10494 2076 240704 489024 88088 31705198186 15725714482
1513010912712 195 10494 2077 240704 489024 88088 31705200810 15725721456
1513010913750 195 10494 2077 240704 489024 88088 31705204082 15725729154
1513010914790 195 10494 2077 240704 489024 88088 31705206348 15725736128
1513010915831 195 10494 2077 240704 489024 88088 31705208614 15725743874
1513010916872 196 10495 2077 240704 489024 88088 31705210436 15725750476
1513010917914 196 10495 2077 240704 489024 88088 31705212194 15725757568
1513010918956 196 10495 2077 240704 489024 88088 31705214268 15725764542
1513010919997 196 10495 2077 240704 489024 88088 31705216406 15725771944
1513010921039 196 10496 2078 240704 489024 88088 31705218228 15725778546
1513010922080 197 10496 2078 240704 489024 88088 31705220016 15725785638
1513010923121 197 10496 2078 240704 489024 88088 31705222248 15725792612
1513010924161 197 10496 2078 240704 489024 88088 31705224262 15725799892
1513010925202 197 10496 2078 240704 489024 88088 31705226212 15725806494
1513010926244 197 10496 2078 240704 489024 88088 31705228384 15725813096
1513010927278 198 10496 2078 240704 489024 88088 31705230364 15725819856
1513010928319 198 10497 2078 240704 489024 88088 31705232314 15725826948
1513010929360 198 10497 2078 240704 489024 88088 31705234260 15725833614
1513010930401 198 10497 2078 240704 489024 88088 31705236112 15725840706
1513010931443 198 10497 2078 240704 489024 88088 31705239530 15725852917
1513010932477 198 10497 2078 240704 489024 88088 31705242286 15725864787
1513010933518 198 10497 2078 240704 489024 88088 31705244914 15725876073
1513010934558 198 10497 2078 240704 489024 88088 31705247862 15725888467
1513010935584 199 10497 2078 240704 489024 88088 31705250801 15725900243
1513010936609 199 10497 2078 240704 489024 88088 31705253301 15725911623
1513010937647 199 10497 2078 240704 489024 88088 31705256211 15725923771
1513010938686 199 10498 2079 240704 489024 88088 31705259185 15725935429
1513010939725 199 10498 2079 240704 489024 88088 31705261259 15725942893
1513010940765 199 10498 2079 240704 489024 88088 31705263369 15725949683
1513010941806 199 10498 2079 240704 489024 88088 31705265953 15725956721
1513010942847 199 10498 2080 240704 489024 88088 31705269377 15725964420
1513010943888 200 10498 2080 240704 489024 88088 31705271295 15725971512
1513010944929 200 10499 2080 240704 489024 88088 31705273339 15725978178
1513010945973 200 10499 2080 240704 489024 88088 31705275285 15725985270
1513010947014 200 10499 2080 240704 489024 88088 31705277891 15725992865
1513010948054 200 10500 2080 240704 489024 88088 31705280455 15726004799
1513010949093 201 10500 2080 240704 489024 88088 31705282277 15726011401
1513010950136 201 10500 2080 240704 489024 88088 31705284585 15726022687
1513010951176 201 10500 2080 240704 489024 88088 31705287149 15726033973
1513010952218 202 10501 2081 242968 489024 88088 31705290483 15726046538
1513010953259 202 10501 2081 242968 489024 88088 31705293431 15726057824
1513010954300 202 10501 2081 242968 489024 88088 31705296345 15726069600
1513010955342 202 10501 2081 242968 489024 88088 31705299468 15726081171
1513010956384 202 10501 2081 242968 489024 88088 31705302766 15726093507
1513010957427 202 10501 2081 242968 489024 88088 31705305676 15726105165
1513010958465 203 10501 2081 242968 489024 88088 31705308486 15726116941
1513010959508 203 10502 2081 242968 489024 88088 31705311266 15726129301
1513010960549 203 10502 2081 242968 489024 88088 31705313456 15726136473
1513010961591 203 10502 2081 242968 489024 88088 31705316266 15726143691
1513010962622 204 10502 2081 242968 489024 88088 31705318892 15726152113
1513010963645 204 10502 2081 242968 489024 88088 31705321972 15726160195
1513010964679 204 10502 2081 242968 489024 88088 31705324912 15726167491
1513010965719 204 10502 2082 242968 489024 88088 31705327548 15726180107
1513010966759 205 10502 2082 242968 489024 88088 31705329710 15726188195
1513010967798 205 10502 2082 242968 489024 88088 31705331596 15726195063
1513010968839 205 10502 2082 242968 489024 88088 31705333418 15726202025
1513010969880 205 10502 2082 242968 489024 88088 31705335334 15726209335
1513010970923 205 10502 2082 242968 489024 88088 31705337250 15726216203
1513010971964 205 10503 2082 242968 489024 88088 31705339072 15726223259
1513010973007 205 10503 2082 242968 489024 88088 31705343138 15726235969
1513010974049 205 10503 2082 242968 489024 88088 31705346116 15726247553
1513010975084 206 10504 2083 242968 489024 88088 31705349030 15726259263
1513010976125 224 10504 2083 271396 489024 88088 31705357537 15726281736
1513010977149 257 10504 2083 306748 489024 88088 31705451292 15726343918
1513010978188 291 10505 2083 313856 489024 88088 31705546243 15726411610
1513010979224 315 10505 2083 322508 489024 88088 31705638224 15726482214
1513010980244 333 10506 2083 324680 489024 88088 31705727103 15726553794
1513010981280 551 10506 2083 482760 489024 88088 31711205924 15732116538
1513010982297 617 10507 2083 624164 489024 88088 31717554458 15738559968
1513010983309 684 10507 2083 757600 489024 88088 31723933413 15744408691
1513010984320 753 10507 2083 868232 489024 88088 31730355393 15750322584
1513010985340 848 10507 2083 1116184 489024 88088 31740432595 15759887935
1513010986352 922 10507 2083 1498564 489024 88088 31757470136 15776978774
1513010987365 1002 10507 2083 1838536 489024 88088 31772295910 15792826847
1513010988378 1064 10507 2083 2055624 489024 88088 31784370466 15805770681
1513010989391 1108 10507 2083 2086344 489024 88088 31793764066 15815907239
1513010990401 1169 10507 2083 2108872 489024 88088 31800880180 15823583634
1513010991413 1234 10507 2083 2207176 489024 88088 31816794052 15840554572
1513010992426 1306 10507 2083 2207176 489024 88088 31832279982 15857204182
1513010993437 1368 10507 2083 2231752 489024 88088 31845030416 15870969170
1513010994451 1444 10507 2083 2231752 489024 88088 31855032412 15881804063
1513010995486 1518 10507 2083 2256328 489024 88088 31867888304 15895712883
1513010996498 1583 10507 2083 2262472 489024 88088 31884686068 15913844008
1513010997510 1642 10507 2083 2262472 489024 88088 31899146938 15929434147
1513010998522 1704 10508 2083 2262680 489024 88088 31910867968 15942079039
1513010999534 1746 10508 2083 2262680 489024 88088 31919919230 15951903822
1513011000547 1795 10508 2083 2262848 489024 88088 31928300606 15960926573
1513011001561 1877 10508 2083 2262848 489024 88088 31948031852 15981747799
1513011002574 1962 10508 2083 2275476 489024 88088 31967166147 16001490753
1513011003586 2043 10508 2083 2275564 489024 88088 31983541809 16018293727
1513011004598 2104 10509 2083 2275564 489024 88088 31997161751 16032170940
1513011005620 2200 10509 2083 2275564 489024 88088 32020380969 16055999676
1513011006632 2294 10509 2083 2277848 489024 88088 32049794523 16086029392
1513011007644 2389 10509 2083 2278360 489024 88088 32077319553 16113953945
1513011008660 2465 10509 2083 2278360 489024 88088 32099479277 16137929423
1513011009672 2526 10509 2083 2278360 489024 88088 32116135989 16155992156
1513011010683 2596 10509 2083 2282456 489024 88088 32134252939 16175481580
1513011011693 2704 10509 2083 2282456 489024 88088 32166457769 16209824240
1513011012705 2810 10509 2083 2282456 489024 88088 32195187874 16240635857
1513011013715 2903 10509 2083 2296792 489024 88088 32218725604 16265942488
1513011014727 2980 10509 2083 2663384 489024 88088 32236617266 16285220623
1513011015738 3089 10509 2083 2894808 489024 88088 32266293810 16316975976
1513011016751 3190 10509 2083 2894808 489024 88088 32297933576 16350993747
1513011017763 3283 10509 2083 2894808 489024 88088 32324891894 16380107900
1513011018776 3361 10509 2083 2894808 489024 88088 32346393522 16403391518
1513011019790 3422 10509 2083 2911192 489024 88088 32362731352 16421105108
1513011020826 3500 10509 2083 2911192 489024 88088 32383624888 16443498683
1513011021838 3612 10509 2083 2911192 489024 88088 32415751310 16477808907
1513011022850 3720 10509 2084 2911192 489024 88088 32443959466 16508089310
1513011023862 3817 10509 2084 2911192 489024 88088 32466708050 16532559139
1513011024875 3894 10510 2084 2931672 489024 88088 32484099700 16551285197
1513011025898 4010 10510 2084 2931672 489024 88088 32518528552 16588170481
1513011026910 4112 10510 2084 2931672 489024 88088 32551770010 16623241191
1513011027921 4201 10510 2084 2931792 489024 88088 32580268972 16653435641
1513011028933 4284 10510 2084 2933840 489024 88088 32603343050 16677783967
1513011029945 4345 10510 2084 2933840 489024 88088 32621083222 16696362419
1513011030958 4465 10510 2084 2933840 489024 88088 32651530918 16727957180
1513011031970 4597 10510 2084 2933840 489024 88088 32695374316 16772863783
1513011032981 4722 10510 2084 2937936 489024 88088 32734896974 16812773697
1513011033993 4827 10510 2084 2937936 489024 88088 32767156302 16846929623
1513011035005 4923 10510 2084 2937936 489024 88088 32793029146 16874418330
1513011036017 5031 10511 2084 2937936 489024 88088 32842453744 16926664129
1513011037027 5139 10511 2084 2937936 489024 88088 32887831544 16974692996
1513011038039 5244 10511 2084 2937936 489024 88088 32925361910 17014862309
1513011039050 5339 10511 2084 2939984 489024 88088 32954981554 17046867430
1513011040063 5408 10511 2084 2939984 489024 88088 32976511814 17070222432
1513011041076 5505 10511 2084 2939984 489024 88088 33014033218 17109711840
1513011042088 5637 10511 2084 2939984 489024 88088 33060494806 17158329783
1513011043100 5760 10511 2084 2944080 489024 88088 33099479110 17199419756
1513011044112 5874 10511 2084 2944080 489024 88088 33130737530 17232721650
1513011045124 5962 10511 2084 2944080 489024 88088 33158832432 17262691293
1513011046137 6122 10511 2084 2946388 489024 88088 33209462554 17315937376
1513011047160 6225 10511 2084 2946388 489024 88088 33253782192 17362867941
1513011048171 6330 10511 2085 2946388 489024 88088 33290234044 17402081199
1513011049184 6423 10511 2085 2948436 489024 88088 33318661138 17432796512
1513011050196 6499 10511 2085 2948436 489024 88088 33339041638 17454918784
1513011051209 6602 10512 2085 2948568 489024 88088 33380646158 17498395060
1513011052220 6754 10512 2085 2961168 489024 88088 33427162468 17546347815
1513011053239 6876 10513 2085 2961168 489024 88088 33466332997 17586751276
1513011054251 6990 10513 2085 2961168 489024 88088 33497676134 17619218976
1513011055263 7100 10513 2085 2961384 489024 88088 33532168968 17654532485
1513011056275 7227 10513 2085 2961384 489024 88088 33590050804 17714180607
1513011057287 7337 10513 2085 2961384 489024 88088 33641239682 17766377600
1513011058299 7447 10513 2085 2961384 489024 88088 33684611942 17810804906
1513011059311 7548 10514 2085 2961384 489024 88088 33720231300 17847357314
1513011060324 7622 10514 2085 2961384 489024 88088 33746222254 17875488407
1513011061337 7750 10514 2085 2961384 489024 88088 33804435726 17936485420
1513011062349 7872 10514 2085 2961384 489024 88088 33862128434 17997071469
1513011063362 7992 10514 2085 2961384 489024 88088 33909820578 18046961431
1513011064374 8098 10514 2085 2961384 489024 88088 33947657324 18086554669
1513011065386 8205 10514 2085 2961384 489024 88088 33993621340 18135253674
1513011066405 8341 10514 2085 2961384 489024 88088 34058618558 18203915932
1513011067418 8462 10515 2085 2961384 489024 88088 34114388656 18262818866
1513011068430 8563 10515 2085 2961384 489024 88088 34159656672 18310709621
1513011069444 8655 10515 2085 2961384 489024 88088 34194384462 18347929808
1513011070456 8750 10515 2085 2961384 489024 88088 34221883844 18377477739
1513011071467 8879 10515 2085 2961384 489024 88088 34282463804 18440751422
1513011072479 9013 10515 2085 2961384 489024 88088 34338827534 18499849111
1513011073491 9139 10515 2085 2961384 489024 88088 34385236872 18548283072
1513011074503 9248 10515 2085 2961384 489024 88088 34421824134 18586801253
1513011075515 9372 10515 2085 2961384 489024 88088 34472021002 18640043183
1513011076528 9511 10515 2085 2961384 489024 88088 34535844406 18707173987
1513011077541 9619 10515 2085 2961384 489024 88088 34590379146 18764686129
1513011078553 9720 10515 2085 2961384 489024 88088 34634529992 18811894058
1513011079565 9826 10515 2085 2961384 489024 88088 34668027296 18847743072
1513011080578 9904 10515 2085 2961384 489024 88088 34698943700 18880905227
1513011081590 10037 10515 2085 2961384 489024 88088 34759768420 18944439086
1513011082602 10166 10515 2085 2961384 489024 88088 34815369460 19002871809
1513011083614 10284 10515 2085 2961384 489024 88088 34861093072 19050935664
1513011084627 10387 10515 2085 2961384 489024 88088 34896462066 19088264015
1513011085640 10510 10515 2085 2961384 489024 88088 34951324146 19146096829
1513011086656 10666 10515 2085 2961384 489024 88088 35013901038 19212217885
1513011087668 10796 10515 2085 2961384 489024 88088 35067177166 19268338944
1513011088679 10899 10515 2085 2961384 489024 88088 35109929614 19313686890
1513011089691 10988 10515 2086 2961384 489024 88088 35142133670 19348513251
1513011090704 11074 10515 2086 2961384 489024 88088 35177733480 19386206212
1513011091716 11195 10516 2086 2961384 489024 88088 35239063672 19450250571
1513011092731 11321 10516 2086 2961384 489024 88088 35293582738 19507279059
1513011093747 11443 10516 2086 2961384 489024 88088 35337900898 19553847197
1513011094759 11553 10516 2086 2961384 489024 88088 35371941600 19589747670
1513011095771 11669 10516 2086 2962096 489024 88088 35430633658 19651303545
1513011096783 11800 10516 2086 2962096 489024 88088 35492329024 19716509499
1513011097808 11975 10516 2086 2962096 489024 88088 35544862339 19772082672
1513011098839 12090 10519 2086 2962672 489024 88088 35569856663 19794080991
1513011099877 12091 10519 2086 2962672 489024 88088 35569858549 19794089145
1513011100918 12091 10519 2086 2962672 489024 88088 35569860563 19794096717
1513011101957 12091 10519 2086 2962672 489024 88088 35569862607 19794104651
1513011102998 12092 10519 2086 2962672 489024 88088 35569865159 19794112943
1513011104038 12092 10519 2086 2962672 489024 88088 35569867045 19794120861
1513011105079 12092 10519 2087 2962672 489024 88088 35569869055 19794128337
1513011106119 12093 10519 2087 2962672 489024 88088 35569872426 19794141179
1513011107158 12093 10520 2087 2962672 489024 88088 35569875374 19794153527
1513011108200 12093 10520 2087 2962672 489024 88088 35569878130 19794166239
1513011109241 12093 10520 2087 2962672 489024 88088 35569881008 19794180503
1513011110273 12093 10520 2087 2962672 489024 88088 35569883630 19794192247
1513011111313 12093 10520 2087 2962672 489024 88088 35569886720 19794205979
1513011112355 12093 10520 2087 2962672 489024 88088 35569889540 19794217849
1513011113395 12093 10521 2087 2962672 489024 88088 35569892570 19794233687
1513011114435 12094 10521 2087 2962672 489024 88088 35569895134 19794245463