1512849075756 MPS in: 0 out: 0
1512849076756 MPS in: 0 out: 0
1512849077755 MPS in: 0 out: 0
1512849078755 MPS in: 0 out: 0
1512849079756 MPS in: 0 out: 0
1512849080755 MPS in: 0 out: 0
1512849081756 MPS in: 0 out: 0
1512849082755 MPS in: 0 out: 0
1512849083755 MPS in: 0 out: 0
1512849084755 MPS in: 0 out: 0
1512849085755 MPS in: 0 out: 0
1512849086756 MPS in: 0 out: 0
1512849087755 MPS in: 0 out: 0
1512849088756 MPS in: 0 out: 0
1512849089755 MPS in: 0 out: 0
1512849090756 MPS in: 0 out: 0
1512849091755 MPS in: 0 out: 0
1512849092756 MPS in: 0 out: 0
1512849093755 MPS in: 0 out: 0
1512849094754 MPS in: 8 out: 8
1512849095754 MPS in: 54 out: 52
1512849096755 MPS in: 126 out: 128
1512849097754 MPS in: 206 out: 206
1512849098754 MPS in: 286 out: 286
1512849099754 MPS in: 366 out: 366
1512849100755 MPS in: 446 out: 446
1512849101754 MPS in: 527 out: 526
1512849102754 MPS in: 608 out: 608
1512849103754 MPS in: 688 out: 688
1512849104754 MPS in: 768 out: 768
1512849105754 MPS in: 848 out: 848
1512849106755 MPS in: 928 out: 928
1512849107754 MPS in: 1004 out: 1004
1512849108755 MPS in: 1094 out: 1094
1512849109755 MPS in: 1170 out: 1170
1512849110754 MPS in: 1251 out: 1251
1512849111755 MPS in: 1333 out: 1333
1512849112754 MPS in: 1413 out: 1413
1512849113755 MPS in: 1493 out: 1493
1512849114754 MPS in: 1574 out: 1574
1512849115754 MPS in: 1654 out: 1654
1512849116755 MPS in: 1734 out: 1734
1512849117755 MPS in: 1814 out: 1814
1512849118755 MPS in: 1894 out: 1894
1512849119754 MPS in: 1974 out: 1974
1512849120754 MPS in: 2054 out: 2054
1512849121754 MPS in: 2134 out: 2134
1512849122754 MPS in: 2214 out: 2214
1512849123754 MPS in: 2294 out: 2294
1512849124755 MPS in: 2375 out: 2375
1512849125754 MPS in: 2456 out: 2456
1512849126755 MPS in: 2537 out: 2536
1512849127754 MPS in: 2616 out: 2617
1512849128754 MPS in: 2697 out: 2697
1512849129755 MPS in: 2777 out: 2777
1512849130754 MPS in: 2859 out: 2859
1512849131755 MPS in: 2940 out: 2939
1512849132754 MPS in: 3020 out: 3019
1512849133754 MPS in: 3101 out: 3102
1512849134755 MPS in: 3181 out: 3181
1512849135754 MPS in: 3261 out: 3261
1512849136755 MPS in: 3343 out: 3342
1512849137754 MPS in: 3423 out: 3423
1512849138755 MPS in: 3503 out: 3503
1512849139755 MPS in: 3583 out: 3583
1512849140755 MPS in: 3663 out: 3663
1512849141755 MPS in: 3743 out: 3743
1512849142754 MPS in: 3823 out: 3823
1512849143754 MPS in: 3896 out: 3895
1512849144754 MPS in: 3975 out: 3975
1512849145755 MPS in: 4057 out: 4057
1512849146754 MPS in: 4136 out: 4136
1512849147755 MPS in: 4217 out: 4217
1512849148754 MPS in: 4298 out: 4298
1512849149755 MPS in: 4379 out: 4379
1512849150754 MPS in: 4459 out: 4459
1512849151755 MPS in: 4540 out: 4540
1512849152754 MPS in: 4620 out: 4620
1512849153755 MPS in: 4701 out: 4701
1512849154754 MPS in: 4780 out: 4780
1512849155755 MPS in: 4862 out: 4862
1512849156755 MPS in: 4941 out: 4941
1512849157754 MPS in: 5020 out: 5020
1512849158755 MPS in: 5102 out: 5102
1512849159754 MPS in: 5172 out: 5171
1512849160754 MPS in: 5252 out: 5252
1512849161754 MPS in: 5333 out: 5333
1512849162754 MPS in: 5413 out: 5413
1512849163754 MPS in: 5495 out: 5495
1512849164754 MPS in: 5570 out: 5569
1512849165754 MPS in: 5647 out: 5647
1512849166754 MPS in: 5727 out: 5727
1512849167754 MPS in: 5808 out: 5808
1512849168755 MPS in: 5887 out: 5887
1512849169754 MPS in: 5949 out: 5947
1512849170754 MPS in: 6051 out: 6053
1512849171754 MPS in: 6117 out: 6116
1512849172754 MPS in: 6197 out: 6198
1512849173754 MPS in: 6280 out: 6280
1512849174754 MPS in: 6355 out: 6355
1512849175754 MPS in: 6443 out: 6443
1512849176755 MPS in: 6522 out: 6520
1512849177754 MPS in: 6596 out: 6597
1512849178754 MPS in: 6673 out: 6672
1512849179755 MPS in: 6752 out: 6753
1512849180754 MPS in: 6833 out: 6833
1512849181754 MPS in: 6902 out: 6902
1512849182754 MPS in: 6986 out: 6986
1512849183755 MPS in: 7068 out: 7068
1512849184754 MPS in: 7140 out: 7140
1512849185754 MPS in: 7220 out: 7220
1512849186754 MPS in: 7291 out: 7291
1512849187754 MPS in: 7371 out: 7371
1512849188754 MPS in: 7455 out: 7455
1512849189754 MPS in: 7538 out: 7538
1512849190754 MPS in: 7615 out: 7615
1512849191755 MPS in: 7698 out: 7698
1512849192754 MPS in: 7776 out: 7776
1512849193754 MPS in: 7855 out: 7855
1512849194755 MPS in: 7941 out: 7941
1512849195755 MPS in: 8002 out: 8002
1512849196754 MPS in: 7999 out: 7999
1512849197754 MPS in: 8034 out: 8034
1512849198754 MPS in: 8102 out: 8102
1512849199754 MPS in: 8180 out: 8180
1512849200754 MPS in: 8259 out: 8259
1512849201754 MPS in: 8338 out: 8338
1512849202754 MPS in: 8418 out: 8418
1512849203754 MPS in: 8497 out: 8497
1512849204754 MPS in: 8578 out: 8578
1512849205754 MPS in: 8660 out: 8658
1512849206754 MPS in: 8740 out: 8740
1512849207754 MPS in: 8821 out: 8821
1512849208755 MPS in: 8902 out: 8902
1512849209755 MPS in: 8981 out: 8981
1512849210754 MPS in: 9061 out: 9059
1512849211754 MPS in: 9142 out: 9143
1512849212754 MPS in: 9222 out: 9222
1512849213755 MPS in: 9302 out: 9302
1512849214755 MPS in: 9384 out: 9383
1512849215754 MPS in: 9460 out: 9460
1512849216754 MPS in: 9542 out: 9542
1512849217754 MPS in: 9622 out: 9622
1512849218754 MPS in: 9704 out: 9703
1512849219755 MPS in: 9784 out: 9784
1512849220755 MPS in: 9863 out: 9863
1512849221754 MPS in: 9942 out: 9941
1512849222754 MPS in: 10023 out: 10023
1512849223754 MPS in: 10105 out: 10105
1512849224754 MPS in: 10185 out: 10185
1512849225755 MPS in: 10268 out: 10268
1512849226754 MPS in: 10345 out: 10345
1512849227755 MPS in: 10428 out: 10428
1512849228754 MPS in: 10509 out: 10509
1512849229754 MPS in: 10588 out: 10588
1512849230754 MPS in: 10667 out: 10667
1512849231754 MPS in: 10749 out: 10749
1512849232754 MPS in: 10831 out: 10831
1512849233754 MPS in: 10909 out: 10908
1512849234754 MPS in: 10991 out: 10991
1512849235754 MPS in: 11071 out: 11070
1512849236754 MPS in: 11149 out: 11150
1512849237754 MPS in: 11230 out: 11229
1512849238754 MPS in: 11311 out: 11312
1512849239754 MPS in: 11391 out: 11390
1512849240755 MPS in: 11474 out: 11475
1512849241754 MPS in: 11551 out: 11551
1512849242754 MPS in: 11635 out: 11635
1512849243754 MPS in: 11715 out: 11715
1512849244754 MPS in: 11796 out: 11794
1512849245754 MPS in: 11871 out: 11870
1512849246754 MPS in: 11949 out: 11949
1512849247754 MPS in: 12029 out: 12029
1512849248754 MPS in: 12106 out: 12106
1512849249754 MPS in: 12188 out: 12188
1512849250754 MPS in: 12268 out: 12268
1512849251754 MPS in: 12347 out: 12347
1512849252754 MPS in: 12431 out: 12431
1512849253754 MPS in: 12509 out: 12509
1512849254754 MPS in: 12589 out: 12589
1512849255754 MPS in: 12669 out: 12669
1512849256754 MPS in: 12749 out: 12749
1512849257755 MPS in: 12830 out: 12830
1512849258755 MPS in: 12911 out: 12911
1512849259754 MPS in: 12987 out: 12987
1512849260754 MPS in: 13073 out: 13073
1512849261754 MPS in: 13147 out: 13147
1512849262755 MPS in: 13229 out: 13229
1512849263754 MPS in: 13301 out: 13301
1512849264754 MPS in: 13385 out: 13385
1512849265754 MPS in: 13465 out: 13465
1512849266754 MPS in: 13541 out: 13541
1512849267755 MPS in: 13548 out: 13547
1512849268754 MPS in: 13765 out: 13765
1512849269755 MPS in: 13778 out: 13778
1512849270754 MPS in: 13854 out: 13854
1512849271755 MPS in: 13937 out: 13937
1512849272755 MPS in: 14010 out: 14010
1512849273754 MPS in: 14078 out: 14078
1512849274754 MPS in: 14169 out: 14169
1512849275755 MPS in: 14248 out: 14248
1512849276754 MPS in: 14327 out: 14327
1512849277754 MPS in: 14405 out: 14405
1512849278755 MPS in: 14489 out: 14489
1512849279754 MPS in: 14566 out: 14566
1512849280755 MPS in: 14648 out: 14648
1512849281754 MPS in: 14719 out: 14718
1512849282754 MPS in: 14807 out: 14807
1512849283754 MPS in: 14877 out: 14877
1512849284755 MPS in: 14956 out: 14955
1512849285754 MPS in: 15031 out: 15031
1512849286754 MPS in: 15113 out: 15113
1512849287754 MPS in: 15188 out: 15188
1512849288754 MPS in: 15265 out: 15265
1512849289754 MPS in: 15342 out: 15342
1512849290755 MPS in: 15429 out: 15428
1512849291755 MPS in: 15503 out: 15503
1512849292754 MPS in: 15582 out: 15582
1512849293755 MPS in: 15671 out: 15671
1512849294755 MPS in: 15719 out: 15717
1512849295755 MPS in: 15857 out: 15859
1512849296754 MPS in: 15904 out: 15903
1512849297755 MPS in: 15994 out: 15994
1512849298754 MPS in: 15979 out: 15978
1512849299754 MPS in: 16048 out: 16046
1512849300754 MPS in: 16108 out: 16108
1512849301755 MPS in: 16185 out: 16185
1512849302754 MPS in: 16250 out: 16250
1512849303754 MPS in: 16357 out: 16356
1512849304754 MPS in: 16417 out: 16417
1512849305754 MPS in: 16510 out: 16510
1512849306754 MPS in: 16583 out: 16583
1512849307754 MPS in: 16663 out: 16663
1512849308754 MPS in: 16744 out: 16744
1512849309754 MPS in: 16824 out: 16824
1512849310754 MPS in: 16907 out: 16907
1512849311754 MPS in: 16985 out: 16984
1512849312754 MPS in: 17046 out: 17046
1512849313755 MPS in: 17170 out: 17170
1512849314754 MPS in: 17227 out: 17227
1512849315754 MPS in: 17309 out: 17309
1512849316754 MPS in: 17361 out: 17361
1512849317754 MPS in: 17498 out: 17498
1512849318754 MPS in: 17476 out: 17476
1512849319754 MPS in: 17707 out: 17707
1512849320754 MPS in: 17708 out: 17708
1512849321754 MPS in: 17791 out: 17789
1512849322754 MPS in: 17870 out: 17871
1512849323754 MPS in: 17951 out: 17951
1512849324755 MPS in: 18032 out: 18032
1512849325754 MPS in: 18106 out: 18106
1512849326754 MPS in: 18192 out: 18191
1512849327754 MPS in: 18272 out: 18272
1512849328754 MPS in: 18353 out: 18352
1512849329755 MPS in: 18436 out: 18437
1512849330755 MPS in: 18519 out: 18519
1512849331755 MPS in: 18594 out: 18593
1512849332755 MPS in: 18676 out: 18676
1512849333754 MPS in: 18754 out: 18752
1512849334755 MPS in: 18839 out: 18839
1512849335754 MPS in: 18913 out: 18913
1512849336754 MPS in: 18998 out: 18998
1512849337754 MPS in: 19078 out: 19078
1512849338755 MPS in: 19165 out: 19165
1512849339755 MPS in: 19234 out: 19232
1512849340755 MPS in: 19318 out: 19318
1512849341754 MPS in: 19394 out: 19392
1512849342754 MPS in: 19482 out: 19482
1512849343755 MPS in: 19565 out: 19565
1512849344754 MPS in: 19634 out: 19634
1512849345754 MPS in: 19718 out: 19717
1512849346754 MPS in: 19796 out: 19796
1512849347754 MPS in: 19884 out: 19884
1512849348754 MPS in: 19954 out: 19953
1512849349754 MPS in: 20025 out: 20025
1512849350754 MPS in: 20121 out: 20121
1512849351754 MPS in: 20195 out: 20195
1512849352754 MPS in: 20274 out: 20274
1512849353754 MPS in: 20356 out: 20356
1512849354754 MPS in: 20436 out: 20435
1512849355754 MPS in: 20517 out: 20517
1512849356754 MPS in: 20588 out: 20588
1512849357754 MPS in: 20682 out: 20682
1512849358754 MPS in: 20760 out: 20759
1512849359754 MPS in: 20834 out: 20833
1512849360755 MPS in: 20920 out: 20920
1512849361754 MPS in: 20994 out: 20994
1512849362754 MPS in: 21075 out: 21075
1512849363754 MPS in: 21155 out: 21154
1512849364754 MPS in: 21229 out: 21228
1512849365754 MPS in: 21309 out: 21310
1512849366754 MPS in: 21387 out: 21387
1512849367755 MPS in: 21474 out: 21473
1512849368754 MPS in: 21544 out: 21544
1512849369754 MPS in: 21624 out: 21624
1512849370754 MPS in: 21704 out: 21703
1512849371755 MPS in: 21785 out: 21785
1512849372755 MPS in: 21861 out: 21861
1512849373755 MPS in: 21946 out: 21946
1512849374754 MPS in: 22007 out: 22007
1512849375754 MPS in: 22089 out: 22088
1512849376754 MPS in: 22172 out: 22172
1512849377755 MPS in: 22265 out: 22265
1512849378754 MPS in: 22331 out: 22330
1512849379755 MPS in: 22411 out: 22411
1512849380754 MPS in: 22498 out: 22497
1512849381755 MPS in: 22432 out: 22432
1512849382754 MPS in: 22792 out: 22792
1512849383754 MPS in: 22727 out: 22727
1512849384754 MPS in: 22810 out: 22810
1512849385754 MPS in: 22730 out: 22730
1512849386754 MPS in: 23106 out: 23106
1512849387754 MPS in: 23043 out: 23043
1512849388754 MPS in: 23117 out: 23116
1512849389754 MPS in: 23199 out: 23199
1512849390754 MPS in: 23266 out: 23266
1512849391755 MPS in: 23356 out: 23355
1512849392755 MPS in: 23426 out: 23426
1512849393755 MPS in: 23510 out: 23510
1512849394754 MPS in: 23590 out: 23590
1512849395755 MPS in: 23677 out: 23676
1512849396754 MPS in: 23744 out: 23745
1512849397754 MPS in: 23688 out: 23684
1512849398754 MPS in: 24062 out: 24066
1512849399755 MPS in: 23997 out: 23997
1512849400755 MPS in: 24005 out: 24005
1512849401754 MPS in: 23980 out: 23980
1512849402754 MPS in: 24134 out: 24130
1512849403754 MPS in: 24177 out: 24177
1512849404755 MPS in: 24261 out: 24261
1512849405754 MPS in: 24326 out: 24326
1512849406754 MPS in: 24407 out: 24406
1512849407755 MPS in: 24507 out: 24506
1512849408754 MPS in: 24564 out: 24564
1512849409754 MPS in: 24659 out: 24658
1512849410754 MPS in: 24739 out: 24738
1512849411754 MPS in: 24811 out: 24812
1512849412754 MPS in: 24894 out: 24894
1512849413754 MPS in: 24977 out: 24977
1512849414754 MPS in: 25057 out: 25057
1512849415754 MPS in: 25134 out: 25132
1512849416754 MPS in: 25212 out: 25212
1512849417754 MPS in: 25299 out: 25299
1512849418754 MPS in: 25368 out: 25368
1512849419755 MPS in: 25467 out: 25467
1512849420754 MPS in: 25531 out: 25531
1512849421754 MPS in: 25618 out: 25618
1512849422755 MPS in: 25696 out: 25696
1512849423754 MPS in: 25773 out: 25773
1512849424754 MPS in: 25851 out: 25850
1512849425754 MPS in: 25940 out: 25941
1512849426754 MPS in: 26011 out: 26011
1512849427754 MPS in: 26094 out: 26093
1512849428755 MPS in: 26202 out: 26202
1512849429754 MPS in: 26246 out: 26246
1512849430754 MPS in: 26347 out: 26347
1512849431755 MPS in: 26431 out: 26431
1512849432755 MPS in: 26502 out: 26501
1512849433754 MPS in: 26580 out: 26578
1512849434754 MPS in: 26650 out: 26648
1512849435754 MPS in: 26754 out: 26754
1512849436754 MPS in: 26811 out: 26811
1512849437754 MPS in: 26780 out: 26780
1512849438754 MPS in: 27115 out: 27114
1512849439755 MPS in: 27064 out: 27064
1512849440754 MPS in: 27146 out: 27146
1512849441754 MPS in: 27222 out: 27222
1512849442755 MPS in: 27310 out: 27310
1512849443754 MPS in: 27378 out: 27378
1512849444754 MPS in: 27471 out: 27471
1512849445754 MPS in: 27542 out: 27541
1512849446754 MPS in: 27636 out: 27631
1512849447755 MPS in: 27715 out: 27719
1512849448754 MPS in: 27784 out: 27784
1512849449754 MPS in: 27862 out: 27862
1512849450754 MPS in: 27952 out: 27952
1512849451755 MPS in: 28022 out: 28022
1512849452754 MPS in: 28094 out: 28094
1512849453754 MPS in: 28175 out: 28175
1512849454754 MPS in: 28261 out: 28261
1512849455754 MPS in: 28181 out: 28176
1512849456754 MPS in: 28583 out: 28587
1512849457754 MPS in: 28500 out: 28500
1512849458754 MPS in: 28587 out: 28587
1512849459754 MPS in: 28663 out: 28662
1512849460754 MPS in: 28735 out: 28734
1512849461754 MPS in: 28837 out: 28836
1512849462754 MPS in: 28915 out: 28915
1512849463754 MPS in: 28972 out: 28972
1512849464754 MPS in: 29079 out: 29079
1512849465754 MPS in: 29145 out: 29145
1512849466754 MPS in: 29217 out: 29217
1512849467755 MPS in: 29297 out: 29297
1512849468754 MPS in: 29384 out: 29381
1512849469754 MPS in: 29451 out: 29452
1512849470754 MPS in: 29534 out: 29533
1512849471754 MPS in: 29606 out: 29607
1512849472754 MPS in: 29684 out: 29684
1512849473754 MPS in: 29772 out: 29772
1512849474755 MPS in: 29867 out: 29867
1512849475755 MPS in: 29930 out: 29930
1512849476755 MPS in: 30001 out: 29999
1512849477755 MPS in: 30083 out: 30082
1512849478754 MPS in: 30157 out: 30154
1512849479755 MPS in: 30253 out: 30255
1512849480754 MPS in: 30299 out: 30298
1512849481755 MPS in: 30429 out: 30429
1512849482754 MPS in: 30477 out: 30477
1512849483754 MPS in: 30324 out: 30323
1512849484755 MPS in: 30890 out: 30890
1512849485754 MPS in: 30699 out: 30699
1512849486754 MPS in: 30810 out: 30809
1512849487755 MPS in: 30877 out: 30878
1512849488754 MPS in: 30939 out: 30939
1512849489754 MPS in: 31034 out: 31034
1512849490755 MPS in: 31103 out: 31103
1512849491754 MPS in: 31168 out: 31168
1512849492754 MPS in: 31276 out: 31276
1512849493754 MPS in: 31230 out: 31229
1512849494755 MPS in: 31535 out: 31535
1512849495755 MPS in: 31493 out: 31493
1512849496754 MPS in: 31579 out: 31579
1512849497755 MPS in: 31668 out: 31667
1512849498754 MPS in: 31685 out: 31685
1512849499754 MPS in: 31874 out: 31874
1512849500755 MPS in: 31918 out: 31918
1512849501754 MPS in: 31969 out: 31969
1512849502755 MPS in: 32030 out: 32030
1512849503754 MPS in: 31994 out: 31994
1512849504754 MPS in: 32085 out: 32085
1512849505754 MPS in: 32166 out: 32166
1512849506754 MPS in: 32251 out: 32250
1512849507755 MPS in: 32355 out: 32354
1512849508754 MPS in: 32395 out: 32396
1512849509754 MPS in: 32485 out: 32485
1512849510755 MPS in: 32596 out: 32596
1512849511755 MPS in: 32350 out: 32350
1512849512754 MPS in: 32998 out: 32998
1512849513754 MPS in: 32831 out: 32831
1512849514754 MPS in: 32907 out: 32899
1512849515754 MPS in: 32962 out: 32970
1512849516755 MPS in: 33079 out: 33079
1512849517754 MPS in: 33112 out: 33112
1512849518754 MPS in: 33227 out: 33225
1512849519754 MPS in: 33264 out: 33266
1512849520754 MPS in: 32971 out: 32970
1512849521755 MPS in: 33907 out: 33907
1512849522754 MPS in: 33518 out: 33517
1512849523755 MPS in: 33639 out: 33639
1512849524754 MPS in: 33689 out: 33689
1512849525754 MPS in: 33772 out: 33772
1512849526754 MPS in: 33860 out: 33860
1512849527754 MPS in: 33956 out: 33955
1512849528754 MPS in: 34013 out: 34013
1512849529754 MPS in: 34114 out: 34111
1512849530754 MPS in: 34170 out: 34170
1512849531754 MPS in: 34265 out: 34263
1512849532754 MPS in: 34350 out: 34350
1512849533754 MPS in: 34334 out: 34334
1512849534754 MPS in: 34424 out: 34424
1512849535754 MPS in: 34738 out: 34738
1512849536755 MPS in: 34692 out: 34690
1512849537755 MPS in: 34752 out: 34739
1512849538754 MPS in: 34798 out: 34810
1512849539755 MPS in: 34933 out: 34932
1512849540754 MPS in: 34974 out: 34974
1512849541754 MPS in: 35075 out: 35074
1512849542754 MPS in: 35131 out: 35131
1512849543755 MPS in: 35270 out: 35270
1512849544754 MPS in: 35288 out: 35288
1512849545754 MPS in: 35385 out: 35385
1512849546754 MPS in: 35477 out: 35477
1512849547754 MPS in: 35533 out: 35533
1512849548754 MPS in: 35644 out: 35643
1512849549754 MPS in: 35728 out: 35726
1512849550754 MPS in: 35735 out: 35735
1512849551754 MPS in: 35918 out: 35918
1512849552754 MPS in: 35948 out: 35948
1512849553754 MPS in: 36024 out: 36023
1512849554755 MPS in: 36124 out: 36120
1512849555754 MPS in: 36132 out: 36131
1512849556755 MPS in: 36325 out: 36329
1512849557755 MPS in: 36332 out: 36332
1512849558755 MPS in: 36450 out: 36450
1512849559755 MPS in: 36500 out: 36497
1512849560754 MPS in: 36572 out: 36575
1512849561754 MPS in: 36675 out: 36675
1512849562754 MPS in: 36743 out: 36743
1512849563754 MPS in: 36840 out: 36840
1512849564754 MPS in: 36911 out: 36911
1512849565754 MPS in: 36979 out: 36979
1512849566754 MPS in: 37089 out: 37089
1512849567754 MPS in: 37140 out: 37139
1512849568754 MPS in: 37239 out: 37238
1512849569754 MPS in: 37283 out: 37281
1512849570754 MPS in: 37399 out: 37397
1512849571754 MPS in: 37459 out: 37458
1512849572755 MPS in: 37571 out: 37572
1512849573754 MPS in: 37597 out: 37597
1512849574754 MPS in: 37666 out: 37663
1512849575755 MPS in: 37826 out: 37826
1512849576754 MPS in: 37824 out: 37824
1512849577754 MPS in: 37950 out: 37948
1512849578755 MPS in: 38013 out: 38013
1512849579754 MPS in: 38083 out: 38082
1512849580754 MPS in: 38086 out: 38086
1512849581755 MPS in: 38340 out: 38340
1512849582755 MPS in: 38332 out: 38332
1512849583754 MPS in: 38401 out: 38400
1512849584754 MPS in: 38483 out: 38481
1512849585754 MPS in: 38571 out: 38572
1512849586754 MPS in: 38630 out: 38629
1512849587754 MPS in: 38742 out: 38743
1512849588755 MPS in: 38828 out: 38828
1512849589755 MPS in: 38844 out: 38844
1512849590754 MPS in: 38893 out: 38893
1512849591754 MPS in: 39103 out: 39103
1512849592754 MPS in: 39096 out: 39096
1512849593754 MPS in: 39219 out: 39219
1512849594755 MPS in: 39245 out: 39244
1512849595754 MPS in: 39343 out: 39343
1512849596754 MPS in: 39438 out: 39437
1512849597755 MPS in: 39531 out: 39532
1512849598754 MPS in: 39572 out: 39572
1512849599754 MPS in: 39666 out: 39664
1512849600755 MPS in: 39416 out: 39413
1512849601754 MPS in: 40170 out: 40174
1512849602754 MPS in: 39908 out: 39907
1512849603755 MPS in: 39998 out: 39998
1512849604756 MPS in: 40041 out: 40041
1512849605756 MPS in: 39993 out: 39993
1512849606755 MPS in: 39662 out: 39660
1512849607755 MPS in: 40279 out: 40281
1512849608755 MPS in: 40010 out: 40006
1512849609755 MPS in: 39925 out: 39929
1512849610755 MPS in: 40110 out: 40110
1512849611755 MPS in: 40014 out: 40014
1512849612755 MPS in: 40006 out: 40006
1512849613755 MPS in: 39999 out: 39999
1512849614755 MPS in: 39992 out: 39992
1512849615755 MPS in: 40010 out: 40002
1512849616755 MPS in: 39984 out: 39991
1512849617755 MPS in: 40008 out: 40004
1512849618755 MPS in: 39995 out: 40000
1512849619755 MPS in: 40011 out: 40011
1512849620755 MPS in: 40014 out: 40014
1512849621756 MPS in: 39994 out: 39994
1512849622756 MPS in: 39992 out: 39991
1512849623756 MPS in: 40007 out: 40008
1512849624756 MPS in: 39678 out: 39675
1512849625755 MPS in: 40240 out: 40241
1512849626755 MPS in: 40027 out: 40029
1512849627755 MPS in: 40030 out: 40030
1512849628755 MPS in: 39990 out: 39990
1512849629755 MPS in: 39995 out: 39995
1512849630755 MPS in: 40026 out: 40026
1512849631755 MPS in: 40004 out: 40002
1512849632755 MPS in: 39968 out: 39970
1512849633755 MPS in: 39785 out: 39785
1512849634755 MPS in: 40220 out: 40220
1512849635755 MPS in: 40012 out: 40011
1512849636755 MPS in: 39784 out: 39785
1512849637755 MPS in: 40231 out: 40231
1512849638755 MPS in: 39986 out: 39986
1512849639755 MPS in: 40003 out: 40003
1512849640755 MPS in: 39995 out: 39995
1512849641755 MPS in: 40008 out: 40008
1512849642754 MPS in: 39775 out: 39775
1512849643755 MPS in: 40228 out: 40226
1512849644755 MPS in: 40000 out: 40002
1512849645755 MPS in: 40000 out: 40000
1512849646755 MPS in: 39998 out: 39994
1512849647755 MPS in: 40011 out: 40011
1512849648756 MPS in: 39999 out: 40003
1512849649756 MPS in: 40012 out: 40012
1512849650756 MPS in: 39985 out: 39985
1512849651756 MPS in: 39859 out: 39859
1512849652755 MPS in: 40089 out: 40089
1512849653755 MPS in: 40030 out: 40030
1512849654755 MPS in: 39999 out: 39999
1512849655755 MPS in: 40003 out: 40003
1512849656755 MPS in: 39989 out: 39989
1512849657755 MPS in: 40018 out: 40017
1512849658755 MPS in: 40008 out: 40009
1512849659755 MPS in: 39992 out: 39992
1512849660755 MPS in: 39961 out: 39961
1512849661755 MPS in: 40027 out: 40027
1512849662755 MPS in: 40018 out: 40018
1512849663755 MPS in: 40011 out: 40006
1512849664755 MPS in: 39767 out: 39771
1512849665755 MPS in: 40207 out: 40207
1512849666756 MPS in: 40038 out: 40039
1512849667756 MPS in: 39998 out: 39998
1512849668756 MPS in: 39968 out: 39968
1512849669755 MPS in: 39958 out: 39951
1512849670755 MPS in: 40023 out: 40030
1512849671755 MPS in: 39976 out: 39976
1512849672755 MPS in: 37845 out: 37168
1512849673754 MPS in: 27238 out: 26657
1512849674755 MPS in: 19784 out: 19339
1512849675755 MPS in: 16002 out: 16002
1512849676755 MPS in: 16001 out: 15999
1512849677755 MPS in: 16000 out: 16002
1512849678755 MPS in: 12949 out: 12638
1512849679755 MPS in: 8002 out: 8001
1512849680755 MPS in: 7996 out: 7996
1512849681755 MPS in: 8005 out: 8006
1512849682755 MPS in: 8001 out: 8001
1512849683755 MPS in: 8000 out: 8000
1512849684755 MPS in: 7995 out: 7995
1512849685755 MPS in: 4219 out: 4083
1512849686756 MPS in: 0 out: 0
1512849687755 MPS in: 0 out: 0
1512849688755 MPS in: 0 out: 0
1512849689755 MPS in: 0 out: 0
1512849690756 MPS in: 0 out: 0
1512849691756 MPS in: 0 out: 0
1512849692755 MPS in: 0 out: 0
