"broker count","device count"
1415652,86585
4832242,2607184
2740712,4380688
806691,2251223
446794,609910
336889,418680
251152,312387
196930,235341
162799,187402
136283,155536
114204,129716
94886,108747
74292,89442
55986,70014
39997,51057
29126,37651
20845,26539
14692,19831
10888,13854
8655,10705
7049,8527
5740,7151
4576,5786
3410,4499
2812,3520
2451,2916
2065,2460
1733,2122
1525,1778
1252,1529
981,1233
877,1059
837,988
743,951
618,809
577,707
518,615
532,590
493,634
498,569
491,565
543,569
524,549
544,535
421,481
333,430
354,373
319,383
346,334
311,357
272,330
269,318
209,308
211,248
192,248
161,205
163,199
164,180
149,202
158,200
142,181
157,184
168,189
181,195
172,207
171,190
167,181
164,173
161,187
168,184
166,190
158,182
153,178
171,176
172,191
164,205
175,188
175,199
165,185
188,190
190,218
206,197
194,220
222,232
219,234
193,220
196,207
199,231
196,202
203,232
206,237
239,281
286,285
232,299
261,249
254,297
257,287
286,306
319,336
383,382
377,420
359,437
334,378
346,380
320,399
351,376
387,392
340,412
388,412
365,412
409,439
366,422
366,417
324,385
349,355
349,381
381,381
433,400
436,424
396,456
385,412
311,392
364,375
393,363
377,423
410,408
426,438
456,456
337,405
288,361
248,297
234,250
222,262
218,226
225,240
247,229
271,271
252,276
274,280
245,303
219,255
204,223
196,227
213,236
211,214
193,216
188,214
184,214
166,211
166,162
180,201
175,185
191,195
170,184
163,174
159,181
160,179
177,179
160,193
192,177
179,209
178,211
189,200
201,218
189,213
203,229
207,233
227,236
224,251
230,262
206,262
221,250
218,265
224,254
228,259
244,256
257,271
292,312
298,325
268,322
275,311
275,301
266,315
303,320
339,351
351,390
360,374
367,374
342,339
362,359
373,414
337,403
339,393
359,412
382,412
381,433
352,379
364,408
364,418
335,374
339,371
312,341
304,339
270,327
262,295
256,307
257,286
253,300
257,296
253,272
258,280
244,278
302,280
316,340
336,355
327,373
307,326
274,297
307,306
332,317
324,367
300,327
257,292
245,275
248,263
241,253
242,264
228,246
220,240
212,229
214,239
174,238
179,193
182,200
190,202
190,220
214,219
175,217
185,182
216,211
214,235
189,235
208,240
205,237
184,222
171,203
219,218
210,234
230,238
238,266
252,276
253,299
283,285
257,301
285,296
296,346
284,319
295,353
260,307
305,308
312,323
322,332
259,353
266,321
236,294
249,281
256,288
248,279
290,289
303,312
272,339
284,287
284,299
288,320
256,313
251,297
262,290
284,303
266,294
299,283
313,311
289,336
277,327
270,294
282,284
272,308
318,330
268,350
299,322
268,317
257,307
248,283
262,283
257,278
212,285
235,238
226,254
209,236
184,239
208,210
193,222
210,230
223,239
272,294
266,327
245,310
219,279
226,257
232,275
242,281
235,285
225,270
213,265
217,238
212,260
204,249
216,246
227,260
228,265
237,271
234,262
227,264
212,222
168,208
171,199
181,188
186,188
200,220
182,217
195,207
200,206
186,204
195,185
186,195
194,201
209,196
189,215
187,208
182,196
187,199
200,200
196,235
198,193
187,205
182,201
187,199
186,198
204,203
170,206
157,179
131,155
114,136
106,121
109,113
111,126
108,116
96,117
106,123
97,110
81,98
86,89
81,93
84,96
88,93
82,106
88,88
84,104
103,115
95,107
86,104
83,105
81,101
87,104
102,110
91,113
90,112
116,115
112,138
133,140
141,153
113,160
101,126
105,126
115,122
123,132
109,140
123,122
166,171
203,185
154,185
158,208
160,230
191,243
239,280
222,273
212,287
196,238
202,249
202,220
197,256
204,220
215,265
217,274
220,273
238,260
182,280
172,252
186,258
170,232
183,220
131,195
137,159
154,180
165,175
153,191
154,179
187,207
173,213
185,226
175,208
175,205
177,225
157,175
163,177
179,196
179,202
156,189
154,185
161,179
172,196
175,203
150,199
148,171
169,167
161,208
181,207
173,201
191,227
202,191
168,217
152,183
164,188
214,207
202,236
212,220
221,246
273,260
246,301
249,278
233,260
230,260
237,270
222,252
238,249
224,242
230,262
220,263
240,273
228,246
247,289
222,260
211,235
242,273
243,265
210,239
203,202
172,198
185,180
178,186
201,171
209,221
193,194
197,199
247,221
219,240
227,219
238,226
213,232
191,210
213,199
214,199
200,222
224,205
205,217
217,209
210,205
190,216
213,195
189,205
204,193
221,216
235,214
199,221
220,212
213,214
209,219
236,254
328,210
163,307
152,155
142,138
122,123
121,127
125,121
123,136
118,117
95,117
101,95
90,94
60,70
63,63
62,66
63,67
57,56
52,52
59,63
46,59
33,39
41,37
38,38
36,32
55,46
68,60
70,62
76,70
62,77
67,68
66,70
62,63
65,60
63,61
68,57
53,67
52,56
47,52
46,47
49,48
45,48
43,43
33,41
48,39
44,43
44,45
56,52
54,56
43,51
52,43
51,47
40,48
47,46
41,48
35,39
34,36
30,25
34,37
39,34
42,40
39,41
42,38
33,38
26,36
25,22
18,23
14,17
10,14
7,7
10,9
14,14
13,11
8,11
7,5
7,9
10,11
8,7
6,8
5,3
6,7
4,6
4,4
4,2
4,3
5,5
4,3
4,5
4,5
4,4
,2
,2
,
,
,
,
,
,
,
,
,
,
,
,
,
,
,
,
,
,
,
,
,
,
,
,
,
,
,
,
,
,
,
,
,
,
,
,
,
,
,
,
,
,
,
,
,
,
,
,
,
,
,
,
,
,
,
,
,
,
,
,
,
,
,
,
,
,
,
,
,
,
,
,
,
,
,
,
,
,
,
,
,
,
,
,
,
,
,
,
,
,
,
,
,
,
,
,
,
,
,
,
,
,
,
,
,
,
,
,
,
,
,
,
,
,
,
,
,
,
,
,
,
,
,
,
,
,
,
,
,
,
,
,
,
,
,
,
,
,
,
,
,
,
,
,
,
,
,
,
,
,
,
,
,
,
,
,
,
,
,
,
,
,
,
,
,
,
,
,
,
,
,
,
,
,
,
,
,
,
,
,
,
,
,
,
,
,
,
,
,
,
,
,
,
,
,
,
,
,
,
,
,
,
,
,
,
,
,
,
,
,
,
,
,
,
,
,
,
,
,
,
,
,
,
,
,
,
,
,
,
,
,
,
,
,
,
,
,
,
,
,
,
,
,
,
,
,
,
,
,
,
,
,
,
,
,
,
,
,
,
,
,
,
,
,
,
,
,
,
,
,
,
,
,
,
,
,
,
,
,
,
,
,
,
,
,
,
,
,
,
,
,
,
,
,
,
,
,
,
,
,
,
,
,
,
,
,
,
,
,
,
,
,
,
,
,
,
,
,
,
,
,
,
,
,
,
,
,
,
,
,
,
,
,
,
,
,
,
,
,
,
,
,
,
,
,
,
,
,
,
,
,
,
,
,
,
,
,
,
,
,
,
,
,
,
,
,
,
,
,
,
,
,
,
,
,
,
,
,
,
,
,
,
,
,
,
,
,
,
,
,
,
,
,
,
,
,
,
,
,
,
,
,
,
,
,
,
,
,
,
,
,
,
,
,
,
,
,
,
,
,
,
,
,
,
,
,
,
,
,
,
,
,
,
,
,
,
,
,
,
,
,
,
,
,
,
,
,
,
,
,
,
,
,
,
,
,
,
,
,
,
,
,
,
,
,
,
,
,
,
,
,
,
,
,
,
,
,
,
,
,
,
,
,
,
,
,
,
,
,
,
,
,
,
,
,
,
,
,
,
,
,
,
,
,
,
,
,
,
,
,
,
,
,
,
,
,
,
,
,
,
,
,
,
,
,
,
,
,
,
,
,
,
,
,
,
,
,
,
,
,
,
,
,
,
,
,
,
,
,
,
,
,
,
,
,
,
,
,
,
,
,
,
,
,
,
,
,
,
,
,
,
,
,
,
,
,
,
,
,
,
,
,
,
,
,
,
,
,
,
,
,
,
,
,
,
,
,
,
,
,
,
,
,
,
,
,
,
,
,
,
,
,
,
,
,
,
,
,
,
,
,
,
,
,
,
,
,
,
,
,
,
,
,
,
,
,
,
,
,
,
,
,
,
,
,
,
,
,
,
,
,
,
,
,
,
,
,
,
,
,
,
,
,
,
,
,
,
,
,
,
,
,
,
,
,
,
,
,
,
,
,
,
,
,
,
,
,
,
,
,
,
,
,
,
,
,
,
,
,
,
,
,
,
,
,
,
,
,
,
,
,
,
,
,
,
,
,
,
,
,
,
,
,
,
,
,
,
,
,
,
,
,
,
,
,
,
,
,
,
,
,
,
,
,
,
,
,
,
,
,
,
,
,
,
,
,
,
,
,
,
,
,
,
,
,
,
,
,
,
,
,
,
,
,
,
,
,
,
,
,
,
,
,
,
,
,
,
,
,
,
,
,
,
,
,
,
,
,
,
,
,
,
,
,
,
,
,
,
,
,
,
,
,
,
,
,
,
,
,
,
,
,
,
,
,
,
,
,
,
,
,
,
,
,
,
,
,
,
,
,
,
,
,
,
,
,
,
,
,
,
,
,
,
,
,
,
,
,
,
,
,
,
,
,
,
,
,
,
,
,
,
,
,
,
,
,
,
,
,
,
,
,
,
,
,
,
,
,
,
,
,
,
,
,
,
,
,
,
,
,
,
,
,
,
,
,
,
,
,
,
,
,
,
,
,
,
,
,
,
,
,
,
,
,
,
,
,
,
,
,
,
,
,
,
,
,
,
,
,
,
,
,
,
,
,
,
,
,
,
,
,
,
,
,
,
,
,
,
,
,
,
,
,
,
,
,
,
,
,
,
,
,
,
,
,
,
,
,
,
,
,
,
,
,
,
,
,
,
,
,
,
,
,
,
,
,
,
,
,
,
,
,
,
,
,
,
,
,
,
,
,
,
,
,
,
,
,
,
,
,
,
,
,
,
,
,
,
,
,
,
,
,
,
,
,
,
,
,
,
,
,
,
,
,
,
,
,
,
,
,
,
,
,
,
,
,
,
,
,
,
,
,
,
,
,
,
,
,
,
,
,
,
,
,
,
,
,
,
,
,
,
,
,
,
,
,
,
,
,
,
,
,
,
,
,
,
,
,
,
,
,
,
,
,
,
,
,
,
,
,
,
,
,
,
,
,
,
,
,
,
,
,
,
,
,
,
,
,
,
,
,
,
,
,
,
,
,
,
,
,
,
,
,
,
,
,
,
,
,
,
,
,
,
,
,
,
,
,
,
,
,
,
,
,
,
,
,
,
,
,
,
,
,
,
,
,
,
,
,
,
,
,
,
,
,
,
,
,
,
,
,
,
,
,
,
,
,
,
,
,
,
,
,
,
,
,
,
,
,
,
,
,
,
,
,
,
,
,
,
,
,
,
,
,
,
,
,
,
,
,
,
,
,
,
,
,
,
,
,
,
,
,
,
,
,
,
,
,
,
,
,
,
,
,
,
,
,
,
,
,
,
,
,
,
,
,
,
,
,
,
,
,
,
,
,
,
,
,
,
,
,
,
,
,
,
,
,
,
,
,
,
,
,
,
,
,
,
,
,
,
,
,
,
,
,
,
,
,
,
,
,
,
,
,
,
,
,
,
,
,
,
,
,
,
,
,
,
,
,
,
,
,
,
,
,
,
,
,
,
,
,
,
,
,
,
,
,
,
,
,
,
,
,
,
,
,
,
,
,
,
,
,
,
,
,
,
,
,
,
,
,
,
,
,
,
,
,
,
,
,
,
,
,
,
,
,
,
,
,
,
,
,
,
,
,
,
,
,
,
,
,
,
,
,
,
,
,
,
,
,
,
,
,
,
,
,
,
,
,
,
,
,
,
,
,
,
,
,
,
,
,
,
,
,
,
,
,
,
,
,
,
,
,
,
,
,
,
,
,
,
,
,
,
,
,
,
,
,
,
,
,
,
,
,
,
,
,
,
,
,
,
,
,
,
,
,
,
,
,
,
,
,
,
,
,
,
,
,
,
,
,
,
,
,
,
,
,
,
,
,
,
,
,
,
,
,
,
,
,
,
,
,
,
,
,
,
,
,
,
,
,
,
,
,
,
,
,
,
,
,
,
,
,
,
,
,
,
,
,
,
,
,
,
,
,
,
,
,
,
,
,
,
,
,
,
,
,
,
,
,
,
,
,
,
,
,
,
,
,
,
,
,
,
,
,
,
,
,
,
,
,
,
,
,
,
,
,
,
,
,
,
,
,
,
,
,
,
,
,
,
,
,
,
,
,
,
,
,
,
,
,
,
,
,
,
,
,
,
,
,
,
,
,
,
,
,
,
,
,
,
,
,
,
,
,
,
,
,
,
,
,
,
,
,
,
,
,
,
,
,
,
,
,
,
,
,
,
,
,
,
,
,
,
,
,
,
,
,
,
,
,
,
,
,
,
,
,
,
,
,
,
,
,
,
,
,
,
,
,
,
,
,
,
,
,
,
,
,
,
,
,
,
,
,
,
,
,
,
,
,
,
,
,
,
,
,
,
,
,
,
,
,
,
,
,
,
,
,
,
,
,
,
,
,
,
,
,
,
,
,
,
,
,
,
,
,
,
,
,
,
,
,
,
,
,
,
,
,
,
,
,
,
,
,
,
,
,
,
,
,
,
,
,
,
,
,
,
,
,
,
,
,
,
,
,
,
,
,
,
,
,
,
,
,
,
,
,
,
,
,
,
,
,
,
,
,
,
,
,
,
,
,
,
,
,
,
,
,
,
,
,
,
,
,
,
,
,
,
,
,
,
,
,
,
,
,
,
,
,
,
,
,
,
,
,
,
,
,
,
,
,
,
,
,
,
,
,
,
,
,
,
,
,
,
,
,
,
,
,
,
,
,
,
,
,
,
,
,
,
,
,
,
,
,
,
,
,
,
,
,
,
,
,
,
,
,
,
,
,
,
,
,
,
,
,
,
,
,
,
,
,
,
,
,
,
,
,
,
,
,
,
,
,
,
,
,
,
,
,
,
,
,
,
,
,
,
,
,
,
,
,
,
,
,
,
,
,
,
,
,
,
,
,
,
,
,
,
,
,
,
,
,
,
,
,
,
,
,
,
,
,
,
,
,
,
,
,
,
,
,
,
,
,
,
,
,
,
,
,
,
,
,
,
,
,
,
,
,
,
,
,
,
,
,
,
,
,
,
,
,
,
,
,
,
,
,
,
,
,
,
,
,
,
,
,
,
,
,
,
,
,
,
,
,
,
,
,
,
,
,
,
,
,
,
,
,
,
,
,
,
,
,
,
,
,
,
,
,
,
,
,
,
,
,
,
,
,
,
,
,
,
,
,
,
,
,
,
,
,
,
,
,
,
,
,
,
,
,
,
,
,
,
,
,
,
,
,
,
,
,
,
,
,
,
,
,
,
,
,
,
,
,
,
,
,
,
,
,
,
,
,
,
,
,
,
,
,
,
,
,
,
,
,
,
,
,
,
,
,
,
,
,
,
,
,
,
,
,
,
,
,
,
,
,
,
,
,
,
,
,
,
,
,
,
,
,
,
,
,
,
,
,
,
,
,
,
,
,
,
,
,
,
,
,
,
,
,
,
,
,
,
,
,
,
,
,
,
,
,
,
,
,
,
,
,
,
,
,
,
,
,
,
,
,
,
,
,
,
,
,
,
,
,
,
,
,
,
,
,
,
,
,
,
,
,
,
,
,
,
,
,
,
,
,
,
,
,
,
,
,
,
,
,
,
,
,
,
,
,
,
,
,
,
,
,
,
,
,
,
,
,
,
,
,
,
,
,
,
,
,
,
,
,
,
,
,
,
,
,
,
,
,
,
,
,
,
,
,
,
,
,
,
,
,
,
,
,
,
,
,
,
,
,
,
,
,
,
,
,
,
,
,
,
,
,
,
,
,
,
,
,
,
,
,
,
,
,
,
,
,
,
,
,
,
,
,
,
,
,
,
,
,
,
,
,
,
,
,
,
,
,
,
,
,
,
,
,
,
,
,
,
,
,
,
,
,
,
,
,
,
,
,
,
,
,
,
,
,
,
,
,
,
,
,
,
,
,
,
,
,
,
,
,
,
,
,
,
,
,
,
,
,
